\relax 
\@writefile{toc}{\contentsline {section}{\numberline {1}Reaktionsgrundlagen}{1}}
\@writefile{toc}{\contentsline {section}{\numberline {2}Laminare Verbrennung}{1}}
\@writefile{toc}{\contentsline {subsection}{\numberline {2.1}Vorgemischte Flamme}{1}}
\@writefile{toc}{\contentsline {subsubsection}{\numberline {2.1.1}Experimentelle Bestimmung der Brenngeschwindigkeit}{1}}
\@writefile{toc}{\contentsline {subsubsection}{\numberline {2.1.2}Numerische Bestimmung \relax \fontsize  {9}{11}\selectfont  \abovedisplayskip 8.5\p@ plus3\p@ minus4\p@ \abovedisplayshortskip \z@ plus2\p@ \belowdisplayshortskip 4\p@ plus2\p@ minus2\p@ \def \leftmargin \leftmargini \parsep 4\p@ plus2\p@ minus\p@ \topsep 8\p@ plus2\p@ minus4\p@ \itemsep 4\p@ plus2\p@ minus\p@ {\leftmargin \leftmargini \topsep 4\p@ plus2\p@ minus2\p@ \parsep 2\p@ plus\p@ minus\p@ \itemsep \parsep }\belowdisplayskip \abovedisplayskip (1-D, station\"are, laminare Flamme, $\mathaccentV {dot}05F{Q}_{Verlust}=0, p=konst., D_i=D, cp=konst., Le=1$)}{1}}
\@writefile{toc}{\contentsline {subsubsection}{\numberline {2.1.3}Thermische Flammentheorie \relax \fontsize  {9}{11}\selectfont  \abovedisplayskip 8.5\p@ plus3\p@ minus4\p@ \abovedisplayshortskip \z@ plus2\p@ \belowdisplayshortskip 4\p@ plus2\p@ minus2\p@ \def \leftmargin \leftmargini \parsep 4\p@ plus2\p@ minus\p@ \topsep 8\p@ plus2\p@ minus4\p@ \itemsep 4\p@ plus2\p@ minus\p@ {\leftmargin \leftmargini \topsep 4\p@ plus2\p@ minus2\p@ \parsep 2\p@ plus\p@ minus\p@ \itemsep \parsep }\belowdisplayskip \abovedisplayskip (Einschritt-Brutto-Reaktion, hohes $\Delta H$ und $\infty $-schnell)}{1}}
\@writefile{toc}{\contentsline {subsubsection}{\numberline {2.1.4}Thermodiffusive Instabilit\"at}{2}}
\@writefile{toc}{\contentsline {subsubsection}{\numberline {2.1.5}Flammendicke und -zeit \relax \fontsize  {9}{11}\selectfont  \abovedisplayskip 8.5\p@ plus3\p@ minus4\p@ \abovedisplayshortskip \z@ plus2\p@ \belowdisplayshortskip 4\p@ plus2\p@ minus2\p@ \def \leftmargin \leftmargini \parsep 4\p@ plus2\p@ minus\p@ \topsep 8\p@ plus2\p@ minus4\p@ \itemsep 4\p@ plus2\p@ minus\p@ {\leftmargin \leftmargini \topsep 4\p@ plus2\p@ minus2\p@ \parsep 2\p@ plus\p@ minus\p@ \itemsep \parsep }\belowdisplayskip \abovedisplayskip (Einschrittreaktion, nur eine chem. Zeitskala, $Le=1$)}{2}}
\@writefile{toc}{\contentsline {subsubsection}{\numberline {2.1.6}Flammenstruktur Drei-Schritt-Methan-Reaktion}{2}}
\@writefile{toc}{\contentsline {subsubsection}{\numberline {2.1.7}Flammenstruktur Vier-Schritt-Methan-Reaktion}{2}}
\@writefile{toc}{\contentsline {subsection}{\numberline {2.2}Diffusionsflamme}{2}}
\@writefile{toc}{\contentsline {subsubsection}{\numberline {2.2.1}Mischungsbruch}{2}}
\@writefile{toc}{\contentsline {subsubsection}{\numberline {2.2.2}Burke-Schuhmann \relax \fontsize  {9}{11}\selectfont  \abovedisplayskip 8.5\p@ plus3\p@ minus4\p@ \abovedisplayshortskip \z@ plus2\p@ \belowdisplayshortskip 4\p@ plus2\p@ minus2\p@ \def \leftmargin \leftmargini \parsep 4\p@ plus2\p@ minus\p@ \topsep 8\p@ plus2\p@ minus4\p@ \itemsep 4\p@ plus2\p@ minus\p@ {\leftmargin \leftmargini \topsep 4\p@ plus2\p@ minus2\p@ \parsep 2\p@ plus\p@ minus\p@ \itemsep \parsep }\belowdisplayskip \abovedisplayskip (irreversibel, $\infty $-schnell, $f(Z)$, ! Schadstoffe \& Zwischenprodukte, ! T zu hoch) }{2}}
\@writefile{toc}{\contentsline {subsubsection}{\numberline {2.2.3}Flamelet-Gleichung \relax \fontsize  {9}{11}\selectfont  \abovedisplayskip 8.5\p@ plus3\p@ minus4\p@ \abovedisplayshortskip \z@ plus2\p@ \belowdisplayshortskip 4\p@ plus2\p@ minus2\p@ \def \leftmargin \leftmargini \parsep 4\p@ plus2\p@ minus\p@ \topsep 8\p@ plus2\p@ minus4\p@ \itemsep 4\p@ plus2\p@ minus\p@ {\leftmargin \leftmargini \topsep 4\p@ plus2\p@ minus2\p@ \parsep 2\p@ plus\p@ minus\p@ \itemsep \parsep }\belowdisplayskip \abovedisplayskip (schnell, nicht $\infty $-schnell, $f(Z,\mathcal  {X})$, Transformation zur Flammenoberfl\"ache, Reaktionszonendimensionen $\sim $ Turbulenzgr\"o\IeC {\ss }e)}{2}}
\@writefile{toc}{\contentsline {subsubsection}{\numberline {2.2.4}Chemisches Gleichgewicht \relax \fontsize  {9}{11}\selectfont  \abovedisplayskip 8.5\p@ plus3\p@ minus4\p@ \abovedisplayshortskip \z@ plus2\p@ \belowdisplayshortskip 4\p@ plus2\p@ minus2\p@ \def \leftmargin \leftmargini \parsep 4\p@ plus2\p@ minus\p@ \topsep 8\p@ plus2\p@ minus4\p@ \itemsep 4\p@ plus2\p@ minus\p@ {\leftmargin \leftmargini \topsep 4\p@ plus2\p@ minus2\p@ \parsep 2\p@ plus\p@ minus\p@ \itemsep \parsep }\belowdisplayskip \abovedisplayskip (reversibel, $\infty $-schnell, $f(Z)$) }{3}}
\@writefile{toc}{\contentsline {subsubsection}{\numberline {2.2.5}Laminare Freistrahldiffusionsflamme \relax \fontsize  {9}{11}\selectfont  \abovedisplayskip 8.5\p@ plus3\p@ minus4\p@ \abovedisplayshortskip \z@ plus2\p@ \belowdisplayshortskip 4\p@ plus2\p@ minus2\p@ \def \leftmargin \leftmargini \parsep 4\p@ plus2\p@ minus\p@ \topsep 8\p@ plus2\p@ minus4\p@ \itemsep 4\p@ plus2\p@ minus\p@ {\leftmargin \leftmargini \topsep 4\p@ plus2\p@ minus2\p@ \parsep 2\p@ plus\p@ minus\p@ \itemsep \parsep }\belowdisplayskip \abovedisplayskip (kein Auftrieb, ruhende Umgebung, Grenzschichtstr\"omung)}{3}}
\@writefile{toc}{\contentsline {section}{\numberline {3}Turbulente Verbrennung}{3}}
\@writefile{toc}{\contentsline {subsection}{\numberline {3.1}Turbulente kinetische Energie}{3}}
\@writefile{toc}{\contentsline {subsection}{\numberline {3.2}Integrale turbulente Ma\IeC {\ss }e}{3}}
\@writefile{toc}{\contentsline {subsection}{\numberline {3.3}Kolmogorov Hypothesen}{3}}
\@writefile{toc}{\contentsline {subsection}{\numberline {3.4}Turbulente Vormischflamme}{3}}
\@writefile{toc}{\contentsline {subsection}{\numberline {3.5}Turbulente Diffusionsflamme}{4}}
\@writefile{toc}{\contentsline {subsection}{\numberline {3.6}Momentenmethoden \relax \fontsize  {9}{11}\selectfont  \abovedisplayskip 8.5\p@ plus3\p@ minus4\p@ \abovedisplayshortskip \z@ plus2\p@ \belowdisplayshortskip 4\p@ plus2\p@ minus2\p@ \def \leftmargin \leftmargini \parsep 4\p@ plus2\p@ minus\p@ \topsep 8\p@ plus2\p@ minus4\p@ \itemsep 4\p@ plus2\p@ minus\p@ {\leftmargin \leftmargini \topsep 4\p@ plus2\p@ minus2\p@ \parsep 2\p@ plus\p@ minus\p@ \itemsep \parsep }\belowdisplayskip \abovedisplayskip (nicht f\"ur Bildungstherme)}{4}}
\@writefile{toc}{\contentsline {subsubsection}{\numberline {3.6.1}Favre gemittelte Transportgleichungen}{4}}
\@writefile{toc}{\contentsline {subsubsection}{\numberline {3.6.2}Transportgleichungen f\"ur den Mittelwert}{4}}
\@writefile{toc}{\contentsline {subsection}{\numberline {3.7}Bilanzgleichung f\"ur reagierende Skalare \relax \fontsize  {9}{11}\selectfont  \abovedisplayskip 8.5\p@ plus3\p@ minus4\p@ \abovedisplayshortskip \z@ plus2\p@ \belowdisplayshortskip 4\p@ plus2\p@ minus2\p@ \def \leftmargin \leftmargini \parsep 4\p@ plus2\p@ minus\p@ \topsep 8\p@ plus2\p@ minus4\p@ \itemsep 4\p@ plus2\p@ minus\p@ {\leftmargin \leftmargini \topsep 4\p@ plus2\p@ minus2\p@ \parsep 2\p@ plus\p@ minus\p@ \itemsep \parsep }\belowdisplayskip \abovedisplayskip (isobar, $c_p=konst., Le=1, Q_{rad}=0$) \relax \fontsize  {10}{12}\selectfont  \abovedisplayskip 10\p@ plus2\p@ minus5\p@ \abovedisplayshortskip \z@ plus3\p@ \belowdisplayshortskip 6\p@ plus3\p@ minus3\p@ \belowdisplayskip \abovedisplayskip \let \leftmargin \leftmargini \parsep 4\p@ plus2\p@ minus\p@ \topsep 8\p@ plus2\p@ minus4\p@ \itemsep 4\p@ plus2\p@ minus\p@ \leftmargin \leftmargini \parsep 4\p@ plus2\p@ minus\p@ \topsep 8\p@ plus2\p@ minus4\p@ \itemsep 4\p@ plus2\p@ minus\p@ \& Schlie\IeC {\ss }ungsans\"atze}{5}}
\@writefile{toc}{\contentsline {section}{\numberline {4}Flammenstabilisierung und Sicherheit}{5}}
