\relax 
\@writefile{toc}{\contentsline {section}{\numberline {1}Mathematische Grundlagen}{1}}
\@writefile{toc}{\contentsline {section}{\numberline {2}Energiespeicher}{1}}
\@writefile{toc}{\contentsline {subsection}{\numberline {2.1}W\IeC {\"a}rmespeicher}{1}}
\@writefile{toc}{\contentsline {section}{\numberline {3}Biomasse}{1}}
\@writefile{toc}{\contentsline {subsection}{\numberline {3.1}Holztrocknung}{1}}
\@writefile{toc}{\contentsline {subsection}{\numberline {3.2}Biogas}{2}}
\@writefile{toc}{\contentsline {subsection}{\numberline {3.3}Verbrennung}{2}}
\@writefile{toc}{\contentsline {section}{\numberline {4}Wasserkraft}{2}}
\@writefile{toc}{\contentsline {section}{\numberline {5}W\IeC {\"a}rme\IeC {\"u}bertragungsgrundlagen}{2}}
\@writefile{toc}{\contentsline {section}{\numberline {6}Sonnenstand}{3}}
\@writefile{toc}{\contentsline {section}{\numberline {7}Solarkollektoren}{3}}
\@writefile{toc}{\contentsline {section}{\numberline {8}Solarkraftwerke}{3}}
\@writefile{toc}{\contentsline {section}{\numberline {9}Photovoltaik}{3}}
\@writefile{toc}{\contentsline {section}{\numberline {10}Windenergie}{4}}
\@writefile{toc}{\contentsline {section}{\numberline {11}W\IeC {\"a}rmer\IeC {\"u}ckgewinnung}{4}}
